Script d'accès aux données
--------------------------------------------------------------------------------

Ressources intervenantes :
    - Jérôme
    - Antoine-Ali

Tâches :
    - PDO
    - Panier
    - Catalogue

Avancement : 0%

Date de livraison prévue : 20/06/12

Version : 0.1

Remarques :

    ...

Date de rendu : __/__/__

Signature des développeurs :

Signature du chef de projet :

Signature du responsable :

